{
	"style":	null,
	"props":	{
		"id":	"TopHeroes",
		"component_path":	"Dashboard/TopHeroes/",
		"component_uniquename":	"Dashboard_TopHeroes_TopHeroes"
	},
	"coordinates":	{
		"width":	1297,
		"height":	289
	},
	"hint":	null,
	"controlType":	null,
	"children":	[
		{
			"style":	null,
			"props":	{
				"id":	"Label2097157",
				"text":	"Top Heroes",
				"common_line_id":	"line37"
			},
			"coordinates":	{
				"x":	593,
				"y":	37,
				"width":	73,
				"height":	23
			},
			"hint":	null,
			"controlType":	"L",
			"children":	null
		},
		{
			"style":	null,
			"props":	{
				"id":	"top_hero_1",
				"tab_order":	0,
				"format":	{
					"value":	"100",
					"has_exp":	true
				},
				"attribute":	"A",
				"common_line_id":	"line99"
			},
			"coordinates":	{
				"x":	60,
				"y":	99,
				"width":	146,
				"height":	110
			},
			"hint":	null,
			"controlType":	"B",
			"children":	null
		},
		{
			"style":	null,
			"props":	{
				"id":	"top_hero_2",
				"tab_order":	0,
				"format":	{
					"value":	"100",
					"has_exp":	true
				},
				"attribute":	"A",
				"common_line_id":	"line99"
			},
			"coordinates":	{
				"x":	391,
				"y":	99,
				"width":	146,
				"height":	110
			},
			"hint":	null,
			"controlType":	"B",
			"children":	null
		},
		{
			"style":	null,
			"props":	{
				"id":	"top_hero_3",
				"tab_order":	0,
				"format":	{
					"value":	"100",
					"has_exp":	true
				},
				"attribute":	"A",
				"common_line_id":	"line99"
			},
			"coordinates":	{
				"x":	742,
				"y":	99,
				"width":	146,
				"height":	110
			},
			"hint":	null,
			"controlType":	"B",
			"children":	null
		},
		{
			"style":	null,
			"props":	{
				"id":	"top_hero_4",
				"tab_order":	0,
				"format":	{
					"value":	"100",
					"has_exp":	true
				},
				"attribute":	"A",
				"common_line_id":	"line99"
			},
			"coordinates":	{
				"x":	1100,
				"y":	99,
				"width":	146,
				"height":	110
			},
			"hint":	null,
			"controlType":	"B",
			"children":	null
		}
	]
}